me\kodysimpson\menumanagersystem\listeners\MenuListener.class
me\kodysimpson\menumanagersystem\commands\KillCommand.class
me\kodysimpson\menumanagersystem\MenuManagerSystem.class
me\kodysimpson\menumanagersystem\menusystem\menu\KillConfirmMenu$1.class
me\kodysimpson\menumanagersystem\menusystem\menu\SuicideConfirmMenu.class
me\kodysimpson\menumanagersystem\menusystem\PaginatedMenu.class
me\kodysimpson\menumanagersystem\menusystem\PlayerMenuUtility.class
me\kodysimpson\menumanagersystem\menusystem\menu\KillConfirmMenu.class
me\kodysimpson\menumanagersystem\menusystem\Menu.class
me\kodysimpson\menumanagersystem\commands\SuicideCommand.class
me\kodysimpson\menumanagersystem\menusystem\menu\SuicideConfirmMenu$1.class
me\kodysimpson\menumanagersystem\menusystem\menu\KillPlayerMenu.class
